EESchema Schematic File Version 4
EELAYER 30 0
EELAYER END
$Descr A4 11693 8268
encoding utf-8
Sheet 1 1
Title "LawyerP-Box"
Date "2021-01-12"
Rev "1.0"
Comp "E-Soup"
Comment1 ""
Comment2 ""
Comment3 ""
Comment4 ""
$EndDescr
$Comp
L Device:R R2
U 1 1 5FD259F3
P 8900 2050
F 0 "R2" V 8693 2050 50  0000 C CNN
F 1 "10K" V 8784 2050 50  0000 C CNN
F 2 "Resistor_THT:R_Axial_DIN0204_L3.6mm_D1.6mm_P7.62mm_Horizontal" V 8830 2050 50  0001 C CNN
F 3 "~" H 8900 2050 50  0001 C CNN
	1    8900 2050
	0    -1   -1   0   
$EndComp
$Comp
L Device:R R3
U 1 1 5FD25DBB
P 9250 2150
F 0 "R3" V 9043 2150 50  0000 C CNN
F 1 "10K" V 9134 2150 50  0000 C CNN
F 2 "Resistor_THT:R_Axial_DIN0204_L3.6mm_D1.6mm_P7.62mm_Horizontal" V 9180 2150 50  0001 C CNN
F 3 "~" H 9250 2150 50  0001 C CNN
	1    9250 2150
	0    -1   -1   0   
$EndComp
$Comp
L Device:R R4
U 1 1 5FD26106
P 9550 2250
F 0 "R4" V 9343 2250 50  0000 C CNN
F 1 "10K" V 9434 2250 50  0000 C CNN
F 2 "Resistor_THT:R_Axial_DIN0204_L3.6mm_D1.6mm_P7.62mm_Horizontal" V 9480 2250 50  0001 C CNN
F 3 "~" H 9550 2250 50  0001 C CNN
	1    9550 2250
	0    -1   -1   0   
$EndComp
$Comp
L Device:R R5
U 1 1 5FD26322
P 4250 2250
F 0 "R5" V 4043 2250 50  0000 C CNN
F 1 "10K" V 4134 2250 50  0000 C CNN
F 2 "Resistor_THT:R_Axial_DIN0204_L3.6mm_D1.6mm_P7.62mm_Horizontal" V 4180 2250 50  0001 C CNN
F 3 "~" H 4250 2250 50  0001 C CNN
	1    4250 2250
	0    -1   -1   0   
$EndComp
$Comp
L Device:R R6
U 1 1 5FD26592
P 4250 2350
F 0 "R6" V 4043 2350 50  0000 C CNN
F 1 "10K" V 4134 2350 50  0000 C CNN
F 2 "Resistor_THT:R_Axial_DIN0204_L3.6mm_D1.6mm_P7.62mm_Horizontal" V 4180 2350 50  0001 C CNN
F 3 "~" H 4250 2350 50  0001 C CNN
	1    4250 2350
	0    -1   -1   0   
$EndComp
Wire Wire Line
	4400 2350 4900 2350
Wire Wire Line
	4100 2250 4100 2350
Connection ~ 4100 2350
Wire Wire Line
	4100 2350 4100 2450
Wire Wire Line
	4100 2650 6000 2650
$Comp
L Device:R R10
U 1 1 5FFC52DA
P 4250 2450
F 0 "R10" V 4043 2450 50  0000 C CNN
F 1 "10K" V 4134 2450 50  0000 C CNN
F 2 "Resistor_THT:R_Axial_DIN0204_L3.6mm_D1.6mm_P7.62mm_Horizontal" V 4180 2450 50  0001 C CNN
F 3 "~" H 4250 2450 50  0001 C CNN
	1    4250 2450
	0    -1   -1   0   
$EndComp
$Comp
L Device:R R11
U 1 1 5FFC571C
P 4250 2550
F 0 "R11" V 4043 2550 50  0000 C CNN
F 1 "10K" V 4134 2550 50  0000 C CNN
F 2 "Resistor_THT:R_Axial_DIN0204_L3.6mm_D1.6mm_P7.62mm_Horizontal" V 4180 2550 50  0001 C CNN
F 3 "~" H 4250 2550 50  0001 C CNN
	1    4250 2550
	0    -1   -1   0   
$EndComp
Connection ~ 4100 2450
Wire Wire Line
	4100 2450 4100 2550
Connection ~ 4100 2550
Wire Wire Line
	4100 2550 4100 2650
Wire Wire Line
	4400 2450 5000 2450
Wire Wire Line
	4400 2550 5100 2550
Wire Wire Line
	4800 3700 4800 2250
Wire Wire Line
	4400 2250 4800 2250
Wire Wire Line
	1150 6900 1450 6900
Connection ~ 4800 2250
Wire Wire Line
	4800 2250 6000 2250
Wire Wire Line
	4900 3700 4900 2350
Connection ~ 4900 2350
Wire Wire Line
	4900 2350 6000 2350
Wire Wire Line
	5000 3700 5000 2450
Connection ~ 5000 2450
Wire Wire Line
	5000 2450 6000 2450
Wire Wire Line
	5100 3700 5100 2550
Connection ~ 5100 2550
Wire Wire Line
	5100 2550 6000 2550
$Comp
L Diode:1N47xxA D1
U 1 1 600170B0
P 2000 7400
F 0 "D1" V 1954 7480 50  0000 L CNN
F 1 "1N4729A" V 2045 7480 50  0000 L CNN
F 2 "Diode_THT:D_DO-41_SOD81_P10.16mm_Horizontal" H 2000 7225 50  0001 C CNN
F 3 "https://www.vishay.com/docs/85816/1n4728a.pdf" H 2000 7400 50  0001 C CNN
	1    2000 7400
	0    1    1    0   
$EndComp
$Comp
L Diode:1N47xxA D2
U 1 1 60018ABC
P 2250 7400
F 0 "D2" V 2204 7480 50  0000 L CNN
F 1 "1N4729A" V 2295 7480 50  0000 L CNN
F 2 "Diode_THT:D_DO-41_SOD81_P10.16mm_Horizontal" H 2250 7225 50  0001 C CNN
F 3 "https://www.vishay.com/docs/85816/1n4728a.pdf" H 2250 7400 50  0001 C CNN
	1    2250 7400
	0    1    1    0   
$EndComp
Wire Wire Line
	1150 6750 1800 6750
Wire Wire Line
	1150 6650 2250 6650
Wire Wire Line
	2250 6650 2250 7100
Wire Wire Line
	2000 7550 2250 7550
Wire Wire Line
	1650 7550 1650 6900
$Comp
L Device:R R7
U 1 1 6001D36D
P 1800 6300
F 0 "R7" H 1870 6346 50  0000 L CNN
F 1 "1K" H 1870 6255 50  0000 L CNN
F 2 "Resistor_THT:R_Axial_DIN0204_L3.6mm_D1.6mm_P7.62mm_Horizontal" V 1730 6300 50  0001 C CNN
F 3 "~" H 1800 6300 50  0001 C CNN
	1    1800 6300
	1    0    0    -1  
$EndComp
Wire Wire Line
	1800 6150 1800 6050
Wire Wire Line
	1800 6450 1800 6750
Connection ~ 1800 6750
Wire Wire Line
	1800 6750 2000 6750
$Comp
L Device:R R9
U 1 1 60020BD9
P 2450 5350
F 0 "R9" V 2243 5350 50  0000 C CNN
F 1 "68" V 2334 5350 50  0000 C CNN
F 2 "Resistor_THT:R_Axial_DIN0204_L3.6mm_D1.6mm_P7.62mm_Horizontal" V 2380 5350 50  0001 C CNN
F 3 "~" H 2450 5350 50  0001 C CNN
	1    2450 5350
	0    -1   -1   0   
$EndComp
$Comp
L Connector:Screw_Terminal_01x04 J1
U 1 1 6004B52B
P 950 6750
F 0 "J1" H 868 6325 50  0000 C CNN
F 1 "Screw_Terminal_01x04" H 868 6416 50  0000 C CNN
F 2 "TerminalBlock_4Ucon:TerminalBlock_4Ucon_1x04_P3.50mm_Horizontal" H 950 6750 50  0001 C CNN
F 3 "~" H 950 6750 50  0001 C CNN
	1    950  6750
	-1   0    0    1   
$EndComp
Wire Wire Line
	1150 6050 1150 6100
Wire Wire Line
	1150 6900 1150 6850
Wire Wire Line
	1150 6050 1500 6050
$Comp
L power:VCC #PWR0101
U 1 1 600A5E38
P 1150 6100
F 0 "#PWR0101" H 1150 5950 50  0001 C CNN
F 1 "VCC" V 1165 6227 50  0000 L CNN
F 2 "" H 1150 6100 50  0001 C CNN
F 3 "" H 1150 6100 50  0001 C CNN
	1    1150 6100
	0    -1   -1   0   
$EndComp
Connection ~ 1150 6100
Wire Wire Line
	1150 6100 1150 6550
$Comp
L power:GND #PWR0102
U 1 1 600A6E71
P 1450 6900
F 0 "#PWR0102" H 1450 6650 50  0001 C CNN
F 1 "GND" H 1455 6727 50  0000 C CNN
F 2 "" H 1450 6900 50  0001 C CNN
F 3 "" H 1450 6900 50  0001 C CNN
	1    1450 6900
	1    0    0    -1  
$EndComp
Connection ~ 1450 6900
Wire Wire Line
	1450 6900 1650 6900
$Comp
L power:VCC #PWR0106
U 1 1 600A96E1
P 8450 1950
F 0 "#PWR0106" H 8450 1800 50  0001 C CNN
F 1 "VCC" V 8465 2077 50  0000 L CNN
F 2 "" H 8450 1950 50  0001 C CNN
F 3 "" H 8450 1950 50  0001 C CNN
	1    8450 1950
	0    1    1    0   
$EndComp
Wire Wire Line
	2000 6750 2000 7100
Text Label 1800 7100 0    50   ~ 0
D-
Wire Wire Line
	1800 7100 2000 7100
Connection ~ 2000 7100
Wire Wire Line
	2000 7100 2000 7250
Connection ~ 2000 7550
Wire Wire Line
	2000 7550 1650 7550
Text Label 2450 7100 0    50   ~ 0
D+
Text Label 2150 5350 2    50   ~ 0
D+
Wire Wire Line
	2450 7100 2250 7100
Connection ~ 2250 7100
Wire Wire Line
	2250 7100 2250 7250
Text Label 8550 2550 2    50   ~ 0
CLOCK
Wire Wire Line
	8550 2550 8100 2550
Text Label 8000 5450 0    50   ~ 0
DATA_INPUT
Text Label 5900 2150 2    50   ~ 0
DATA_INPUT
Wire Wire Line
	6000 2150 5900 2150
$Comp
L CD4021BE:CD4021BE U2
U 1 1 5FD23C7A
P 6000 1950
F 0 "U2" H 7100 2250 50  0000 C CNN
F 1 "CD4021BE" H 7100 2150 50  0000 C CNN
F 2 "CD4021BE:DIP794W53P254L1930H508Q16N" H 6000 1950 50  0001 L BNN
F 3 "" H 6000 1950 50  0001 L BNN
F 4 "60K5104" H 6000 1950 50  0001 L BNN "OC_NEWARK"
F 5 "-" H 6000 1950 50  0001 L BNN "OC_FARNELL"
F 6 "CD4021BE" H 6000 1950 50  0001 L BNN "MPN"
F 7 "Texas Instruments" H 6000 1950 50  0001 L BNN "SUPPLIER"
F 8 "PDIP-16" H 6000 1950 50  0001 L BNN "PACKAGE"
	1    6000 1950
	1    0    0    -1  
$EndComp
Wire Wire Line
	8450 1950 8100 1950
$Comp
L Connector:Screw_Terminal_01x09 J2
U 1 1 5FFCA6A8
P 4700 3900
F 0 "J2" V 4825 3896 50  0000 C CNN
F 1 "Screw_Terminal_01x09" V 4916 3896 50  0000 C CNN
F 2 "TerminalBlock_4Ucon:TerminalBlock_4Ucon_1x09_P3.50mm_Horizontal" H 4700 3900 50  0001 C CNN
F 3 "~" H 4700 3900 50  0001 C CNN
	1    4700 3900
	0    1    1    0   
$EndComp
$Comp
L power:VCC #PWR0107
U 1 1 600AA668
P 4300 3700
F 0 "#PWR0107" H 4300 3550 50  0001 C CNN
F 1 "VCC" H 4315 3873 50  0000 C CNN
F 2 "" H 4300 3700 50  0001 C CNN
F 3 "" H 4300 3700 50  0001 C CNN
	1    4300 3700
	1    0    0    -1  
$EndComp
NoConn ~ 8100 2350
NoConn ~ 8100 2450
NoConn ~ 6000 2050
Wire Wire Line
	3750 2350 3900 2350
Text Label 8450 2650 2    50   ~ 0
PSC
Wire Wire Line
	8450 2650 8100 2650
Wire Wire Line
	4400 1950 6000 1950
Wire Wire Line
	8100 2050 8750 2050
Wire Wire Line
	8100 2150 9100 2150
Wire Wire Line
	8100 2250 9400 2250
Connection ~ 4400 1950
$Comp
L power:GND #PWR0103
U 1 1 600A7742
P 3750 2350
F 0 "#PWR0103" H 3750 2100 50  0001 C CNN
F 1 "GND" V 3755 2222 50  0000 R CNN
F 2 "" H 3750 2350 50  0001 C CNN
F 3 "" H 3750 2350 50  0001 C CNN
	1    3750 2350
	0    1    1    0   
$EndComp
Wire Wire Line
	9700 2250 9700 2150
Wire Wire Line
	9700 2150 9400 2150
Wire Wire Line
	3900 1550 3900 2350
Wire Wire Line
	9700 2050 9050 2050
Connection ~ 3900 2350
Wire Wire Line
	3900 2350 4100 2350
Wire Wire Line
	9400 2250 9400 3600
Wire Wire Line
	9400 3600 4700 3600
Wire Wire Line
	4700 3600 4700 3700
Connection ~ 9400 2250
Wire Wire Line
	9700 2150 9700 2050
Wire Wire Line
	3900 1550 9700 1550
Connection ~ 9700 2150
Connection ~ 9700 2050
Wire Wire Line
	9700 2050 9700 1550
Wire Wire Line
	9100 2150 9100 3500
Wire Wire Line
	9100 3500 4600 3500
Wire Wire Line
	4600 3500 4600 3700
Connection ~ 9100 2150
Wire Wire Line
	8750 2050 8750 3400
Wire Wire Line
	8750 3400 4500 3400
Wire Wire Line
	4500 3400 4500 3700
Connection ~ 8750 2050
$Comp
L ATTINY:ATTINY85-20PU IC1
U 1 1 601F3289
P 2950 5150
F 0 "IC1" H 5250 5415 50  0000 C CNN
F 1 "ATTINY85-20PU" H 5250 5324 50  0000 C CNN
F 2 "ATTINY85-20PU:DIP781W56P254L950H533Q8N" H 7400 5250 50  0001 L CNN
F 3 "https://componentsearchengine.com/Datasheets/2/ATTINY85-20PU.pdf" H 7400 5150 50  0001 L CNN
F 4 "MICROCHIP - ATTINY85-20PU - MICROCONTROLLER MCU, 8 BIT, ATTINY, 20MHZ, DIP-8" H 7400 5050 50  0001 L CNN "Description"
F 5 "5.334" H 7400 4950 50  0001 L CNN "Height"
F 6 "Microchip" H 7400 4850 50  0001 L CNN "Manufacturer_Name"
F 7 "ATTINY85-20PU" H 7400 4750 50  0001 L CNN "Manufacturer_Part_Number"
F 8 "556-ATTINY85-20PU" H 7400 4650 50  0001 L CNN "Mouser Part Number"
F 9 "https://www.mouser.co.uk/ProductDetail/Microchip-Technology-Atmel/ATTINY85-20PU?qs=8jWQYweyg6NCiiaOb5GI9Q%3D%3D" H 7400 4550 50  0001 L CNN "Mouser Price/Stock"
F 10 "ATTINY85-20PU" H 7400 4450 50  0001 L CNN "Arrow Part Number"
F 11 "https://www.arrow.com/en/products/attiny85-20pu/microchip-technology" H 7400 4350 50  0001 L CNN "Arrow Price/Stock"
	1    2950 5150
	1    0    0    -1  
$EndComp
Wire Wire Line
	8000 5450 7550 5450
$Comp
L power:VCC #PWR0105
U 1 1 600A883E
P 7550 5150
F 0 "#PWR0105" H 7550 5000 50  0001 C CNN
F 1 "VCC" V 7565 5323 50  0000 C CNN
F 2 "" H 7550 5150 50  0001 C CNN
F 3 "" H 7550 5150 50  0001 C CNN
	1    7550 5150
	0    1    1    0   
$EndComp
$Comp
L power:GND #PWR0104
U 1 1 600A80A0
P 2950 5650
F 0 "#PWR0104" H 2950 5400 50  0001 C CNN
F 1 "GND" H 2955 5477 50  0000 C CNN
F 2 "" H 2950 5650 50  0001 C CNN
F 3 "" H 2950 5650 50  0001 C CNN
	1    2950 5650
	1    0    0    -1  
$EndComp
Text Label 2150 5250 2    50   ~ 0
D-
$Comp
L Device:R R8
U 1 1 600205FF
P 2800 5250
F 0 "R8" V 2593 5250 50  0000 C CNN
F 1 "68" V 2684 5250 50  0000 C CNN
F 2 "Resistor_THT:R_Axial_DIN0204_L3.6mm_D1.6mm_P7.62mm_Horizontal" V 2730 5250 50  0001 C CNN
F 3 "~" H 2800 5250 50  0001 C CNN
	1    2800 5250
	0    1    -1   0   
$EndComp
Text Label 8000 5250 0    50   ~ 0
PSC
Text Label 8000 5350 0    50   ~ 0
CLOCK
Wire Wire Line
	7550 5350 8000 5350
Wire Wire Line
	2150 5250 2650 5250
Wire Wire Line
	2150 5350 2300 5350
Wire Wire Line
	2950 5450 2950 5550
Wire Wire Line
	7550 5250 8000 5250
Wire Wire Line
	2600 5350 2950 5350
Connection ~ 4100 2250
Wire Wire Line
	4100 1950 4100 2250
Wire Wire Line
	4400 1950 4400 3700
$Comp
L Device:R R1
U 1 1 5FD224E4
P 4250 1950
F 0 "R1" V 4043 1950 50  0000 C CNN
F 1 "10K" V 4134 1950 50  0000 C CNN
F 2 "Resistor_THT:R_Axial_DIN0204_L3.6mm_D1.6mm_P7.62mm_Horizontal" V 4180 1950 50  0001 C CNN
F 3 "~" H 4250 1950 50  0001 C CNN
	1    4250 1950
	0    -1   -1   0   
$EndComp
$Comp
L Switch:SW_Push SW1
U 1 1 6027069A
P 2550 5150
F 0 "SW1" H 2550 5435 50  0000 C CNN
F 1 "SW_Push" H 2550 5344 50  0000 C CNN
F 2 "Connector_PinHeader_2.54mm:PinHeader_1x02_P2.54mm_Vertical" H 2550 5350 50  0001 C CNN
F 3 "~" H 2550 5350 50  0001 C CNN
	1    2550 5150
	1    0    0    -1  
$EndComp
Wire Wire Line
	2750 5150 2850 5150
Wire Wire Line
	1900 5150 1900 5550
Wire Wire Line
	1900 5550 2950 5550
Wire Wire Line
	1900 5150 2350 5150
Connection ~ 2950 5550
Wire Wire Line
	2950 5550 2950 5650
$Comp
L Device:R R12
U 1 1 60274A36
P 2850 4650
F 0 "R12" H 2920 4696 50  0000 L CNN
F 1 "10K" H 2920 4605 50  0000 L CNN
F 2 "Resistor_THT:R_Axial_DIN0204_L3.6mm_D1.6mm_P7.62mm_Horizontal" V 2780 4650 50  0001 C CNN
F 3 "~" H 2850 4650 50  0001 C CNN
	1    2850 4650
	1    0    0    -1  
$EndComp
Wire Wire Line
	2850 4800 2850 5150
Connection ~ 2850 5150
Wire Wire Line
	2850 5150 2950 5150
Wire Wire Line
	2850 4500 1500 4500
Wire Wire Line
	1500 4500 1500 6050
Connection ~ 1500 6050
Wire Wire Line
	1500 6050 1800 6050
$EndSCHEMATC
