PCBNEW-LibModule-V1  2021-02-03 08:39:09
# encoding utf-8
Units mm
$INDEX
DIP781W56P254L950H533Q8N
$EndINDEX
$MODULE DIP781W56P254L950H533Q8N
Po 0 0 0 15 601a612d 00000000 ~~
Li DIP781W56P254L950H533Q8N
Cd MCP6541-I/P PDIP
Kw Integrated Circuit
Sc 0
At STD
AR 
Op 0 0 0
T0 0 0 1.27 1.27 0 0.254 N V 21 N "IC**"
T1 0 0 1.27 1.27 0 0.254 N I 21 N "DIP781W56P254L950H533Q8N"
DS -4.957 -5.33 4.957 -5.33 0.05 24
DS 4.957 -5.33 4.957 5.33 0.05 24
DS 4.957 5.33 -4.957 5.33 0.05 24
DS -4.957 5.33 -4.957 -5.33 0.05 24
DS -3.556 -5.08 3.556 -5.08 0.1 24
DS 3.556 -5.08 3.556 5.08 0.1 24
DS 3.556 5.08 -3.556 5.08 0.1 24
DS -3.556 5.08 -3.556 -5.08 0.1 24
DS -3.556 -3.81 -2.286 -5.08 0.1 24
DS -4.485 -5.08 3.556 -5.08 0.2 21
DS -3.556 5.08 3.556 5.08 0.2 21
$PAD
Po -3.905 -3.81
Sh "1" R 1.159 1.159 0 0 900
Dr 0.759 0 0
At STD N 00E0FFFF
Ne 0 ""
$EndPAD
$PAD
Po -3.905 -1.27
Sh "2" C 1.159 1.159 0 0 900
Dr 0.759 0 0
At STD N 00E0FFFF
Ne 0 ""
$EndPAD
$PAD
Po -3.905 1.27
Sh "3" C 1.159 1.159 0 0 900
Dr 0.759 0 0
At STD N 00E0FFFF
Ne 0 ""
$EndPAD
$PAD
Po -3.905 3.81
Sh "4" C 1.159 1.159 0 0 900
Dr 0.759 0 0
At STD N 00E0FFFF
Ne 0 ""
$EndPAD
$PAD
Po 3.905 3.81
Sh "5" C 1.159 1.159 0 0 900
Dr 0.759 0 0
At STD N 00E0FFFF
Ne 0 ""
$EndPAD
$PAD
Po 3.905 1.27
Sh "6" C 1.159 1.159 0 0 900
Dr 0.759 0 0
At STD N 00E0FFFF
Ne 0 ""
$EndPAD
$PAD
Po 3.905 -1.27
Sh "7" C 1.159 1.159 0 0 900
Dr 0.759 0 0
At STD N 00E0FFFF
Ne 0 ""
$EndPAD
$PAD
Po 3.905 -3.81
Sh "8" C 1.159 1.159 0 0 900
Dr 0.759 0 0
At STD N 00E0FFFF
Ne 0 ""
$EndPAD
$EndMODULE DIP781W56P254L950H533Q8N
$EndLIBRARY
